usbd_conf.c:70:6:HAL_PCD_MspInit	136	static
usbd_conf.c:118:6:HAL_PCD_MspDeInit	16	static
usbd_conf.c:152:6:HAL_PCD_SetupStageCallback	16	static
usbd_conf.c:167:6:HAL_PCD_DataOutStageCallback	16	static
usbd_conf.c:182:6:HAL_PCD_DataInStageCallback	16	static
usbd_conf.c:196:6:HAL_PCD_SOFCallback	16	static
usbd_conf.c:210:6:HAL_PCD_ResetCallback	24	static
usbd_conf.c:243:6:HAL_PCD_SuspendCallback	16	static
usbd_conf.c:268:6:HAL_PCD_ResumeCallback	16	static
usbd_conf.c:286:6:HAL_PCD_ISOOUTIncompleteCallback	16	static
usbd_conf.c:301:6:HAL_PCD_ISOINIncompleteCallback	16	static
usbd_conf.c:315:6:HAL_PCD_ConnectCallback	16	static
usbd_conf.c:329:6:HAL_PCD_DisconnectCallback	16	static
usbd_conf.c:344:20:USBD_LL_Init	16	static
usbd_conf.c:394:20:USBD_LL_DeInit	24	static
usbd_conf.c:411:20:USBD_LL_Start	24	static
usbd_conf.c:428:20:USBD_LL_Stop	24	static
usbd_conf.c:448:20:USBD_LL_OpenEP	24	static
usbd_conf.c:466:20:USBD_LL_CloseEP	24	static
usbd_conf.c:484:20:USBD_LL_FlushEP	24	static
usbd_conf.c:502:20:USBD_LL_StallEP	24	static
usbd_conf.c:520:20:USBD_LL_ClearStallEP	24	static
usbd_conf.c:538:9:USBD_LL_IsStallEP	24	static
usbd_conf.c:558:20:USBD_LL_SetUSBAddress	24	static
usbd_conf.c:578:20:USBD_LL_Transmit	32	static
usbd_conf.c:598:20:USBD_LL_PrepareReceive	32	static
usbd_conf.c:616:10:USBD_LL_GetRxDataSize	16	static
usbd_conf.c:627:6:HAL_PCDEx_LPM_Callback	16	static
usbd_conf.c:662:7:USBD_static_malloc	16	static
usbd_conf.c:673:6:USBD_static_free	16	static
usbd_conf.c:683:6:USBD_LL_Delay	16	static
usbd_conf.c:693:20:USBD_Get_USB_Status	24	static
