command.c:17:6:print_ver	8	static
command.c:26:6:cmd_help	8	static
command.c:40:6:cmd_reboot	16	static
command.c:48:6:cmd_motor	24	static
command.c:98:6:cmd_go	24	static
command.c:119:6:cmd_pwm	24	static
