io_func.c:21:6:motor_en	16	static
io_func.c:30:6:reboot	8	static
io_func.c:36:6:sleep_mode	16	static
io_func.c:54:6:stop_mode	16	static
io_func.c:72:6:standby_mode	16	static
io_func.c:94:6:poll_motor4	4	static
io_func.c:110:6:pwm_set_freq_duty	32	static
