mprintf.c:29:5:do_nothing	16	static
mprintf.c:38:13:printchar	16	static
mprintf.c:51:12:prints	40	static
mprintf.c:84:12:printi	64	static
mprintf.c:127:12:print	56	static
mprintf.c:193:5:mprintf	16	static
mprintf.c:199:5:msprintf	20	static
