timer_func.c:7:10:get_systick	8	static
timer_func.c:12:6:set_time_stamp	16	static
timer_func.c:17:10:get_time_interval	24	static
timer_func.c:25:6:delay_ms	24	static
timer_func.c:38:16:get_timer_status	16	static
timer_func.c:43:6:set_timer	16	static
timer_func.c:53:6:reset_timer	16	static
timer_func.c:63:6:reset_all_timers	16	static
timer_func.c:72:6:pause_timer	16	static
timer_func.c:87:6:resume_timer	16	static
