usart_func.c:15:1:__io_putchar	16	static
usart_func.c:21:5:uart_putc	16	static
usart_func.c:35:6:reset_uart_rx_que	4	static
usart_func.c:42:6:dec_uart_rx_que	4	static
usart_func.c:49:6:inc_uart_rx_que	8	static
usart_func.c:57:6:push_uart_rx_que	16	static
usart_func.c:63:5:pop_uart_rx_que	16	static
